\relax 
\@writefile{toc}{\contentsline {section}{\numberline {1}Introduction}{2}}
\@writefile{toc}{\contentsline {subsection}{\numberline {1.1}Why \texttt  {edcam}?}{2}}
\@writefile{toc}{\contentsline {subsection}{\numberline {1.2}Absorption Imaging}{2}}
\@writefile{toc}{\contentsline {subsubsection}{\numberline {1.2.1}Derivation}{3}}
\@writefile{lof}{\contentsline {figure}{\numberline {1}{\ignorespaces Calculated number of atoms versus intensity}}{4}}
\@writefile{toc}{\contentsline {subsubsection}{\numberline {1.2.2}Noise analysis}{4}}
\@writefile{toc}{\contentsline {subsection}{\numberline {1.3}Experimental notes}{5}}
\@writefile{lof}{\contentsline {figure}{\numberline {2}{\ignorespaces Measured atom number uncertainty for experimental shots without atoms.}}{6}}
\@writefile{toc}{\contentsline {section}{\numberline {2}\emph  {Matlab} peculiarities}{6}}
\@writefile{toc}{\contentsline {section}{\numberline {3}Camera control}{6}}
\@writefile{toc}{\contentsline {subsection}{\numberline {3.1}\texttt  {arm} and \texttt  {disarm}}{7}}
\@writefile{toc}{\contentsline {subsection}{\numberline {3.2}\texttt  {getFrames}}{7}}
\@writefile{toc}{\contentsline {subsection}{\numberline {3.3}\texttt  {getFT}}{8}}
\@writefile{toc}{\contentsline {subsection}{\numberline {3.4}\texttt  {stop}}{8}}
\@writefile{toc}{\contentsline {section}{\numberline {4}Global variables}{9}}
\@writefile{toc}{\contentsline {subsection}{\numberline {4.1}\texttt  {temp}}{9}}
\@writefile{toc}{\contentsline {subsection}{\numberline {4.2}\texttt  {frames}}{9}}
\@writefile{toc}{\contentsline {subsection}{\numberline {4.3}\texttt  {camera}}{9}}
\@writefile{toc}{\contentsline {subsubsection}{\numberline {4.3.1}\texttt  {camera.pixelsize}}{9}}
\@writefile{toc}{\contentsline {subsubsection}{\numberline {4.3.2}\texttt  {camera.efficiency}}{9}}
\@writefile{toc}{\contentsline {subsubsection}{\numberline {4.3.3}\texttt  {camera.gain}}{9}}
\@writefile{toc}{\contentsline {subsubsection}{\numberline {4.3.4}\texttt  {camera.crosssection}}{9}}
\@writefile{toc}{\contentsline {subsubsection}{\numberline {4.3.5}\texttt  {camera.linewidth}}{9}}
\@writefile{toc}{\contentsline {subsubsection}{\numberline {4.3.6}\texttt  {camera.pulselength}}{10}}
\@writefile{toc}{\contentsline {subsection}{\numberline {4.4}\texttt  {view}}{10}}
\@writefile{toc}{\contentsline {subsection}{\numberline {4.5}\texttt  {batch}}{10}}
\@writefile{toc}{\contentsline {subsection}{\numberline {4.6}\texttt  {handles}}{10}}
